{
    "track":"groovy",
    "exercise":"darts",
    "id":"3ca0b9ca93c94b1fae060d15d0397bb3",
    "url":"https://exercism.io/tracks/groovy/exercises/darts/solutions/3ca0b9ca93c94b1fae060d15d0397bb3",
    "handle":"heptalophos",
    "is_requester":true,
    "auto_approve":false
}