{
    "track": "groovy",
    "exercise": "series",
    "id": "aae8e20671854892bff7f7ef198192b0",
    "url": "https://exercism.io/tracks/groovy/exercises/series/solutions/aae8e20671854892bff7f7ef198192b0",
    "handle": "heptalophos",
    "is_requester": true,
    "auto_approve": false
}