{
    "track":"groovy",
    "exercise":"reverse-string",
    "id":"4b19ee4ea8624bbbb81d1c983e59c509" ,
    "url":"https://exercism.io/tracks/groovy/exercises/reverse-string/solutions/4b19ee4ea8624bbbb81d1c983e59c509",
    "handle":"heptalophos",
    "is_requester":true,
    "auto_approve":false
}